{
  "__type__": "cc.SpriteFrame",
  "content": {
    "name": "popperYellow",
    "texture": "e370b22f-ad34-4ea3-8112-612888f70eb2",
    "atlas": "",
    "rect": [
      0,
      0,
      55,
      35
    ],
    "offset": [
      0,
      0
    ],
    "originalSize": [
      55,
      35
    ],
    "capInsets": [
      0,
      0,
      0,
      0
    ]
  }
}