{
  "9836134e-b892-4283-b6b2-78b5acf3ed45": {
    "asset": 1601192580000,
    "meta": 1639222821441,
    "relativePath": "effects"
  },
  "430eccbf-bf2c-4e6e-8c0c-884bbb487f32": {
    "asset": 1601192580000,
    "meta": 1639222821482,
    "relativePath": "effects/__builtin-editor-gizmo-line.effect"
  },
  "6c5cf6e1-b044-4eac-9431-835644d57381": {
    "asset": 1601192580000,
    "meta": 1639222821492,
    "relativePath": "effects/__builtin-editor-gizmo-unlit.effect"
  },
  "115286d1-2e10-49ee-aab4-341583f607e8": {
    "asset": 1601192580000,
    "meta": 1639222821520,
    "relativePath": "effects/__builtin-editor-gizmo.effect"
  },
  "abc2cb62-7852-4525-a90d-d474487b88f2": {
    "asset": 1601192580000,
    "meta": 1639222821590,
    "relativePath": "effects/builtin-phong.effect"
  },
  "e2f00085-c597-422d-9759-52c360279106": {
    "asset": 1601192580000,
    "meta": 1639222821635,
    "relativePath": "effects/builtin-toon.effect"
  },
  "f8e6b000-5643-4b86-9080-aa680ce1f599": {
    "asset": 1601192580000,
    "meta": 1639222821637,
    "relativePath": "image"
  },
  "71561142-4c83-4933-afca-cb7a17f67053": {
    "asset": 1601192580000,
    "meta": 1639222821658,
    "relativePath": "image/default_btn_disabled.png"
  },
  "e851e89b-faa2-4484-bea6-5c01dd9f06e2": {
    "asset": 1601192580000,
    "meta": 1639222821660,
    "relativePath": "image/default_btn_normal.png"
  },
  "b43ff3c2-02bb-4874-81f7-f2dea6970f18": {
    "asset": 1601192580000,
    "meta": 1639222821672,
    "relativePath": "image/default_btn_pressed.png"
  },
  "edd215b9-2796-4a05-aaf5-81f96c9281ce": {
    "asset": 1601192580000,
    "meta": 1639222821673,
    "relativePath": "image/default_editbox_bg.png"
  },
  "d81ec8ad-247c-4e62-aa3c-d35c4193c7af": {
    "asset": 1601192580000,
    "meta": 1639222821685,
    "relativePath": "image/default_panel.png"
  },
  "99170b0b-d210-46f1-b213-7d9e3f23098a": {
    "asset": 1601192580000,
    "meta": 1639222821686,
    "relativePath": "image/default_progressbar_bg.png"
  },
  "cfef78f1-c8df-49b7-8ed0-4c953ace2621": {
    "asset": 1601192580000,
    "meta": 1639222821696,
    "relativePath": "image/default_progressbar.png"
  },
  "567dcd80-8bf4-4535-8a5a-313f1caf078a": {
    "asset": 1601192580000,
    "meta": 1639222821697,
    "relativePath": "image/default_radio_button_off.png"
  },
  "9d60001f-b5f4-4726-a629-2659e3ded0b8": {
    "asset": 1601192580000,
    "meta": 1639222821708,
    "relativePath": "image/default_radio_button_on.png"
  },
  "4bab67cb-18e6-4099-b840-355f0473f890": {
    "asset": 1601192580000,
    "meta": 1639222821712,
    "relativePath": "image/default_scrollbar_bg.png"
  },
  "617323dd-11f4-4dd3-8eec-0caf6b3b45b9": {
    "asset": 1601192580000,
    "meta": 1639222821724,
    "relativePath": "image/default_scrollbar_vertical_bg.png"
  },
  "d6d3ca85-4681-47c1-b5dd-d036a9d39ea2": {
    "asset": 1601192580000,
    "meta": 1639222821725,
    "relativePath": "image/default_scrollbar_vertical.png"
  },
  "0275e94c-56a7-410f-bd1a-fc7483f7d14a": {
    "asset": 1601192580000,
    "meta": 1639222821736,
    "relativePath": "image/default_sprite_splash.png"
  },
  "0291c134-b3da-4098-b7b5-e397edbe947f": {
    "asset": 1601192580000,
    "meta": 1639222821738,
    "relativePath": "image/default_scrollbar.png"
  },
  "73a0903d-d80e-4e3c-aa67-f999543c08f5": {
    "asset": 1601192580000,
    "meta": 1639222821749,
    "relativePath": "image/default_toggle_checkmark.png"
  },
  "6e056173-d285-473c-b206-40a7fff5386e": {
    "asset": 1601192580000,
    "meta": 1639222821750,
    "relativePath": "image/default_sprite.png"
  },
  "c25b9d50-c8fc-4d27-beeb-6e7c1f2e5c0f": {
    "asset": 1601192580000,
    "meta": 1639222821763,
    "relativePath": "image/default_toggle_disabled.png"
  },
  "d29077ba-1627-4a72-9579-7b56a235340c": {
    "asset": 1601192580000,
    "meta": 1639222821764,
    "relativePath": "image/default_toggle_normal.png"
  },
  "b181c1e4-0a72-4a91-bfb0-ae6f36ca60bd": {
    "asset": 1601192580000,
    "meta": 1639222821775,
    "relativePath": "image/default_toggle_pressed.png"
  },
  "5c3eedba-6c41-4c0c-9ba7-d91f813cbd1c": {
    "asset": 1601192580000,
    "meta": 1639222821777,
    "relativePath": "materials"
  },
  "c4480a0a-6ac5-443f-8b40-361a14257fc8": {
    "asset": 1601192580000,
    "meta": 1639222822228,
    "relativePath": "materials/builtin-phong.mtl"
  },
  "fc09f9bd-2cce-4605-b630-8145ef809ed6": {
    "asset": 1601192580000,
    "meta": 1639222821782,
    "relativePath": "misc"
  },
  "2be36297-9abb-4fee-8049-9ed5e271da8a": {
    "asset": 1601192580000,
    "meta": 1639222821788,
    "relativePath": "misc/default_video.mp4"
  },
  "db019bf7-f71c-4111-98cf-918ea180cb48": {
    "asset": 1601192580000,
    "meta": 1639222821789,
    "relativePath": "model"
  },
  "e39e96e6-6f6e-413f-bcf1-ac7679bb648a": {
    "asset": 1601192580000,
    "meta": 1639222821790,
    "relativePath": "model/prefab"
  },
  "600301aa-3357-4a10-b086-84f011fa32ba": {
    "asset": 1601192580000,
    "meta": 1639222821791,
    "relativePath": "image/default-particle.png"
  },
  "a87cc147-01b2-43f8-8e42-a7ca90b0c757": {
    "asset": 1616409272316,
    "meta": 1639222821795,
    "relativePath": "model/prefab/box.prefab"
  },
  "fe1417b6-fe6b-46a4-ae7c-9fd331f33a2a": {
    "asset": 1616409272319,
    "meta": 1639222821796,
    "relativePath": "model/prefab/capsule.prefab"
  },
  "b5fc2cf2-7942-483d-be1f-bbeadc4714ad": {
    "asset": 1616409272320,
    "meta": 1639222821798,
    "relativePath": "model/prefab/cone.prefab"
  },
  "1c5e4038-953a-44c2-b620-0bbfc6170477": {
    "asset": 1616409272321,
    "meta": 1639222821799,
    "relativePath": "model/prefab/cylinder.prefab"
  },
  "3f376125-a699-40ca-ad05-04d662eaa1f2": {
    "asset": 1616409272323,
    "meta": 1639222821802,
    "relativePath": "model/prefab/plane.prefab"
  },
  "6c9ef10d-b479-420b-bfe6-39cdda6a8ae0": {
    "asset": 1616409272325,
    "meta": 1639222821804,
    "relativePath": "model/prefab/quad.prefab"
  },
  "2d9a4b85-b0ab-4c46-84c5-18f393ab2058": {
    "asset": 1616409272326,
    "meta": 1639222821807,
    "relativePath": "model/prefab/sphere.prefab"
  },
  "de510076-056b-484f-b94c-83bef217d0e1": {
    "asset": 1616409272356,
    "meta": 1639222821824,
    "relativePath": "model/prefab/torus.prefab"
  },
  "f6e6dd15-71d1-4ffe-ace7-24fd39942c05": {
    "asset": 1601192580000,
    "meta": 1639222821825,
    "relativePath": "obsolete"
  },
  "8a96b965-2dc0-4e03-aa90-3b79cb93b5b4": {
    "asset": 1601192580000,
    "meta": 1639222821849,
    "relativePath": "obsolete/atom.png"
  },
  "f743d2b6-b7ea-4c14-a55b-547ed4d0a045": {
    "asset": 1601192580000,
    "meta": 1639222821850,
    "relativePath": "particle"
  },
  "b8223619-7e38-47c4-841f-9160c232495a": {
    "asset": 1601192580000,
    "meta": 1639222822245,
    "relativePath": "obsolete/atom.plist"
  },
  "d0a82d39-bede-46c4-b698-c81ff0dedfff": {
    "asset": 1601192580000,
    "meta": 1639222821865,
    "relativePath": "particle/atom.png"
  },
  "ae6c6c98-11e4-452f-8758-75f5c6a56e83": {
    "asset": 1601192580000,
    "meta": 1639222821866,
    "relativePath": "prefab"
  },
  "897ef7a1-4860-4f64-968d-f5924b18668a": {
    "asset": 1616409272416,
    "meta": 1639222821870,
    "relativePath": "prefab/2d-camera.prefab"
  },
  "b2687ac4-099e-403c-a192-ff477686f4f5": {
    "asset": 1601192580000,
    "meta": 1639222822247,
    "relativePath": "particle/atom.plist"
  },
  "70d7cdb0-04cd-41bb-9480-c06a4785f386": {
    "asset": 1616409272418,
    "meta": 1639222821873,
    "relativePath": "prefab/3d-camera.prefab"
  },
  "70bbeb73-6dc2-4ee4-8faf-76b3a0e34ec4": {
    "asset": 1616409272422,
    "meta": 1639222821878,
    "relativePath": "prefab/3d-particle.prefab"
  },
  "ed88f13d-fcad-4848-aa35-65a2cb973584": {
    "asset": 1616409272425,
    "meta": 1639222821882,
    "relativePath": "prefab/3d-stage.prefab"
  },
  "972b9a4d-47ee-4c74-b5c3-61d8a69bc29f": {
    "asset": 1616409272428,
    "meta": 1639222821886,
    "relativePath": "prefab/button.prefab"
  },
  "2c937608-2562-40ea-b264-7395df6f0cea": {
    "asset": 1616409272430,
    "meta": 1639222821889,
    "relativePath": "prefab/canvas.prefab"
  },
  "61aeb05b-3b32-452b-8eed-2b76deeed554": {
    "asset": 1616409272433,
    "meta": 1639222821891,
    "relativePath": "prefab/editbox.prefab"
  },
  "27756ebb-3d33-44b0-9b96-e858fadd4dd4": {
    "asset": 1616409272439,
    "meta": 1639222821893,
    "relativePath": "prefab/label.prefab"
  },
  "785a442c-3ceb-45be-a46e-7317f625f3b9": {
    "asset": 1616409272442,
    "meta": 1639222821896,
    "relativePath": "prefab/layout.prefab"
  },
  "a3ee0214-b432-4865-9666-4a3211814282": {
    "asset": 1601192580000,
    "meta": 1639222821896,
    "relativePath": "prefab/light"
  },
  "61906da3-7003-4bda-9abc-5769c76faee4": {
    "asset": 1616409272445,
    "meta": 1639222821898,
    "relativePath": "prefab/light/ambient.prefab"
  },
  "ddb99b39-7004-47cd-9705-751905c43c46": {
    "asset": 1616409272451,
    "meta": 1639222821901,
    "relativePath": "prefab/light/directional.prefab"
  },
  "0cf30284-9073-46bc-9eba-e62b69dbbff3": {
    "asset": 1616409272453,
    "meta": 1639222821903,
    "relativePath": "prefab/light/point.prefab"
  },
  "f5331fd2-bf42-4ee3-a3fd-3e1657600eff": {
    "asset": 1616409272464,
    "meta": 1639222821906,
    "relativePath": "prefab/light/spot.prefab"
  },
  "ca8401fe-ad6e-41a8-bd46-8e3e4e9945be": {
    "asset": 1616409272480,
    "meta": 1639222821910,
    "relativePath": "prefab/pageview.prefab"
  },
  "cd33edea-55f5-46c2-958d-357a01384a36": {
    "asset": 1616409272483,
    "meta": 1639222821913,
    "relativePath": "prefab/particlesystem.prefab"
  },
  "5965ffac-69da-4b55-bcde-9225d0613c28": {
    "asset": 1616409272491,
    "meta": 1639222821916,
    "relativePath": "prefab/progressBar.prefab"
  },
  "4a37dd57-78cd-4cec-aad4-f11a73d12b63": {
    "asset": 1616409272506,
    "meta": 1639222821919,
    "relativePath": "prefab/richtext.prefab"
  },
  "32044bd2-481f-4cf1-a656-e2b2fb1594eb": {
    "asset": 1616409272510,
    "meta": 1639222821923,
    "relativePath": "prefab/scrollview.prefab"
  },
  "0004d1cf-a0ad-47d8-ab17-34d3db9d35a3": {
    "asset": 1616409272512,
    "meta": 1639222821926,
    "relativePath": "prefab/slider.prefab"
  },
  "1f55e3be-b89b-4b79-88de-47fd31018044": {
    "asset": 1616409272515,
    "meta": 1639222821929,
    "relativePath": "prefab/sprite_splash.prefab"
  },
  "96083d03-c332-4a3f-9386-d03e2d19e8ee": {
    "asset": 1616409272518,
    "meta": 1639222821931,
    "relativePath": "prefab/sprite.prefab"
  },
  "7de03a80-4457-438d-95a7-3e7cdffd6086": {
    "asset": 1616409272523,
    "meta": 1639222821934,
    "relativePath": "prefab/tiledmap.prefab"
  },
  "0e42ba95-1fa1-46aa-b2cf-143cd1bcee2c": {
    "asset": 1616409272524,
    "meta": 1639222821937,
    "relativePath": "prefab/tiledtile.prefab"
  },
  "0d784963-d024-4ea6-a7db-03be0ad63010": {
    "asset": 1616409272526,
    "meta": 1639222821943,
    "relativePath": "prefab/toggle.prefab"
  },
  "bf0a434c-84dd-4a8e-a08a-7a36f180cc75": {
    "asset": 1616409272528,
    "meta": 1639222821957,
    "relativePath": "prefab/toggleContainer.prefab"
  },
  "d1b8be49-b0a0-435c-83b7-552bed4bbe35": {
    "asset": 1616409272530,
    "meta": 1639222821980,
    "relativePath": "prefab/toggleGroup.prefab"
  },
  "232d2782-c4bd-4bb4-9e01-909f03d6d3b9": {
    "asset": 1616409272532,
    "meta": 1639222821989,
    "relativePath": "prefab/videoplayer.prefab"
  },
  "8c5001fd-07ee-4a4b-a8a0-63e15195e94d": {
    "asset": 1616409272534,
    "meta": 1639222822012,
    "relativePath": "prefab/webview.prefab"
  },
  "d8afc78c-4eac-4a9f-83dd-67bc70344d33": {
    "asset": 1601192580000,
    "meta": 1639222822013,
    "relativePath": "resources"
  },
  "294c1663-4adf-4a1e-a795-53808011a38a": {
    "asset": 1601192580000,
    "meta": 1639222822014,
    "relativePath": "resources/effects"
  },
  "30682f87-9f0d-4f17-8a44-72863791461b": {
    "asset": 1601192580000,
    "meta": 1639222822024,
    "relativePath": "resources/effects/builtin-2d-graphics.effect"
  },
  "144c3297-af63-49e8-b8ef-1cfa29b3be28": {
    "asset": 1601192580000,
    "meta": 1639222822032,
    "relativePath": "resources/effects/builtin-2d-gray-sprite.effect"
  },
  "f18742d7-56d2-4eb5-ae49-2d9d710b37c8": {
    "asset": 1601192580000,
    "meta": 1639222822045,
    "relativePath": "resources/effects/builtin-2d-label.effect"
  },
  "0e93aeaa-0b53-4e40-b8e0-6268b4e07bd7": {
    "asset": 1601192580000,
    "meta": 1639222822057,
    "relativePath": "resources/effects/builtin-2d-spine.effect"
  },
  "2874f8dd-416c-4440-81b7-555975426e93": {
    "asset": 1601192580000,
    "meta": 1639222822068,
    "relativePath": "resources/effects/builtin-2d-sprite.effect"
  },
  "829a282c-b049-4019-bd38-5ace8d8a6417": {
    "asset": 1601192580000,
    "meta": 1639222822152,
    "relativePath": "resources/effects/builtin-3d-particle.effect"
  },
  "2a7c0036-e0b3-4fe1-8998-89a54b8a2bec": {
    "asset": 1601192580000,
    "meta": 1639222822170,
    "relativePath": "resources/effects/builtin-3d-trail.effect"
  },
  "c0040c95-c57f-49cd-9cbc-12316b73d0d4": {
    "asset": 1601192580000,
    "meta": 1639222822180,
    "relativePath": "resources/effects/builtin-clear-stencil.effect"
  },
  "6d91e591-4ce0-465c-809f-610ec95019c6": {
    "asset": 1601192580000,
    "meta": 1639222822195,
    "relativePath": "resources/effects/builtin-unlit.effect"
  },
  "bbee2217-c261-49bd-a8ce-708d6bcc3500": {
    "asset": 1601192580000,
    "meta": 1639222822195,
    "relativePath": "resources/materials"
  },
  "a153945d-2511-4c14-be7b-05d242f47d57": {
    "asset": 1601192580000,
    "meta": 1639222822277,
    "relativePath": "resources/materials/builtin-2d-graphics.mtl"
  },
  "6f801092-0c37-4f30-89ef-c8d960825b36": {
    "asset": 1601192580000,
    "meta": 1639222822278,
    "relativePath": "resources/materials/builtin-2d-base.mtl"
  },
  "3a7bb79f-32fd-422e-ada2-96f518fed422": {
    "asset": 1601192580000,
    "meta": 1639222822279,
    "relativePath": "resources/materials/builtin-2d-gray-sprite.mtl"
  },
  "e02d87d4-e599-4d16-8001-e14891ac6506": {
    "asset": 1601192580000,
    "meta": 1639222822280,
    "relativePath": "resources/materials/builtin-2d-label.mtl"
  },
  "7afd064b-113f-480e-b793-8817d19f63c3": {
    "asset": 1601192580000,
    "meta": 1639222822281,
    "relativePath": "resources/materials/builtin-2d-spine.mtl"
  },
  "eca5d2f2-8ef6-41c2-bbe6-f9c79d09c432": {
    "asset": 1601192580000,
    "meta": 1639222822282,
    "relativePath": "resources/materials/builtin-2d-sprite.mtl"
  },
  "466d4f9b-e5f4-4ea8-85d5-3c6e9a65658a": {
    "asset": 1601192580000,
    "meta": 1639222822283,
    "relativePath": "resources/materials/builtin-3d-trail.mtl"
  },
  "432fa09c-cf03-4cff-a186-982604408a07": {
    "asset": 1601192580000,
    "meta": 1639222822284,
    "relativePath": "resources/materials/builtin-3d-particle.mtl"
  },
  "2a296057-247c-4a1c-bbeb-0548b6c98650": {
    "asset": 1601192580000,
    "meta": 1639222822285,
    "relativePath": "resources/materials/builtin-unlit.mtl"
  },
  "cf7e0bb8-a81c-44a9-ad79-d28d43991032": {
    "asset": 1601192580000,
    "meta": 1639222822285,
    "relativePath": "resources/materials/builtin-clear-stencil.mtl"
  },
  "954fec8b-cd16-4bb9-a3b7-7719660e7558": {
    "asset": 1601192580000,
    "meta": 1639222824172,
    "relativePath": "model/primitives.fbx"
  },
  "21f2b26d-242b-4c70-ad8a-7aaff5d141df": {
    "asset": 1639201620658,
    "meta": 1639222900269,
    "relativePath": "prefabs"
  },
  "8afc36ff-bb59-4609-bceb-aac6aabd77c7": {
    "asset": 1639200706594,
    "meta": 1639222900271,
    "relativePath": "resources"
  },
  "2580adbc-c775-46e5-851a-18b8e2a36d24": {
    "asset": 1639300487425,
    "meta": 1639300489185,
    "relativePath": "prefabs/popper.prefab"
  },
  "406d6a1f-ebb4-461b-9580-fb76526c75db": {
    "asset": 1351221866000,
    "meta": 1639222900298,
    "relativePath": "resources/popperBlue.png"
  },
  "f6c70247-b5ab-4a47-9b89-7ec62f669c6e": {
    "asset": 1350077338000,
    "meta": 1639222900305,
    "relativePath": "resources/popperBackground.jpg"
  },
  "749b32e0-f5ac-41e1-84ae-96eff79bd505": {
    "asset": 1351221864000,
    "meta": 1639222900327,
    "relativePath": "resources/popperExplosion.png"
  },
  "e2471e63-8cab-499d-a0c2-0943ca847467": {
    "asset": 1351221864000,
    "meta": 1639222900329,
    "relativePath": "resources/popperLeftEye.png"
  },
  "a8c5dfca-e31b-4b7f-846e-794e5191ce92": {
    "asset": 1351221864000,
    "meta": 1639222900374,
    "relativePath": "resources/popperRightEye.png"
  },
  "5051eb16-0ab1-4e99-90b5-7f72fd57d20e": {
    "asset": 1351221864000,
    "meta": 1639222900376,
    "relativePath": "resources/popperPurple.png"
  },
  "6e35b8bb-41a3-474f-8016-8a7281401778": {
    "asset": 1452170656000,
    "meta": 1639222900392,
    "relativePath": "resources/projectile.png"
  },
  "4521208c-c930-48fa-940e-7894b6a5c204": {
    "asset": 1390819822000,
    "meta": 1639222900409,
    "relativePath": "resources/swap.png"
  },
  "4a535346-4ff7-4856-b23c-904d07f802ac": {
    "asset": 1639222185138,
    "meta": 1639222900410,
    "relativePath": "scripts"
  },
  "e370b22f-ad34-4ea3-8112-612888f70eb2": {
    "asset": 1351221864000,
    "meta": 1639222900530,
    "relativePath": "resources/popperYellow.png"
  },
  "c117c3c2-fd33-485a-b748-3339a07a3b1e": {
    "asset": 1639200706600,
    "meta": 1639222900594,
    "relativePath": "sounds"
  },
  "90675277-765b-4c0f-bd85-374c0a23e1b7": {
    "asset": 1541077752000,
    "meta": 1639222901154,
    "relativePath": "sounds/awh.mp3"
  },
  "94fd6ab3-d036-4dc0-bb35-78be7ecebb49": {
    "asset": 1541077750000,
    "meta": 1639222901156,
    "relativePath": "sounds/applauseShort.mp3"
  },
  "2ea2e74a-68fe-434b-a405-84c511ddf1e1": {
    "asset": 1541077752000,
    "meta": 1639222901175,
    "relativePath": "sounds/pop3.mp3"
  },
  "91e6024a-826f-4058-bf32-2a81dd7ce094": {
    "asset": 1541077756000,
    "meta": 1639222901191,
    "relativePath": "sounds/poppersBackgroundMusic.mp3"
  },
  "5d4adb30-1e3a-48cb-8583-14ee0f175ac4": {
    "asset": 1639308367638,
    "meta": 1639308367642,
    "relativePath": "game.fire"
  },
  "1bd34660-3ac2-400b-b295-bee83f8b2f80": {
    "asset": 1639233346558,
    "meta": 1639233397244,
    "relativePath": "scripts/gridItem.ts"
  },
  "a49a4fc9-0e90-42bc-b7a4-0c4bf443999b": {
    "asset": 1639249188103,
    "meta": 1639249188107,
    "relativePath": "prefabs/projectile.prefab"
  },
  "2394445a-e839-4cc2-884e-60098cdcdbe7": {
    "asset": 1639253485808,
    "meta": 1639253524732,
    "relativePath": "resources/levelup.jpeg"
  },
  "46753dae-c921-4485-bfbb-0ea1af5dd241": {
    "asset": 1639254262618,
    "meta": 1639254453517,
    "relativePath": "scripts/gameDefinitions.ts"
  },
  "21deacc1-72c3-4329-9b8c-73075ad44231": {
    "asset": 1639290256817,
    "meta": 1639290257928,
    "relativePath": "scripts/collider.ts"
  },
  "49988416-9d62-4ceb-b009-c652f3a03f0f": {
    "asset": 1639291226490,
    "meta": 1639291237611,
    "relativePath": "resources/gameOver.jpeg"
  },
  "997ec9c5-3cc3-4d05-a39c-8f985d2ac285": {
    "asset": 1639300484154,
    "meta": 1639300485197,
    "relativePath": "scripts/popper.ts"
  },
  "ae9a639a-982b-4971-b1b4-f165d0361fc3": {
    "asset": 1639300593687,
    "meta": 1639300594640,
    "relativePath": "scripts/gridItemManager.ts"
  },
  "bce8ce23-fe94-44d7-a4c6-507998630dc3": {
    "asset": 1639307012428,
    "meta": 1639307013603,
    "relativePath": "scripts/gameController.ts"
  }
}